{
  "Version": "2012-10-17",
  "Statement": [
    {
      "Effect": "Allow",
      "Principal": {
        "AWS": [
          "*"
        ]
      },
      "Action": [
        "es:*"
      ],
      "Resource": "arn:aws:es:${var.regionaws}:${var.aws_account}:domain/${var.domain}/*"
    }
  ]
}